{
  "swagger": "2.0",
  "info": {
    "version": "1.0.0",
    "title": "asksuit",
    "description": "Search Project Application API",
    "license": {
      "name": "MIT",
      "url": "https://opensource.org/licenses/MIT"
    }
  },
  "host": "0.0.0.0:5000",
  "basePath": "/",
  "tags": [
    {
      "name": "Search",
      "description": "API for search in the system"
    }
  ],
  "definitions": {
    "Search": {
      "properties": {
        "checkin": {
          "type": "string",
          "description": "Date like 2021-09-15 in this format yyyy-MM-dd"
        },
        "checkout": {
          "type": "string",
          "description": "Date like 2021-09-17 in this format yyyy-MM-dd"
        }
      }
    },
    "Room": {
      "properties": {
        "name": {
          "type": "string",
          "description": "Luxo Superior"
        },
        "description": {
          "type": "string",
          "description": "Exclusividade e requinte. Todos os quartos luxo superior contam com Ar climatizado, TV LCD 32”, SKY, frigobar, telefone, cofre e secador de... "
        },
        "image": {
          "type": "string",
          "description": "https://media.omnibees.com/Images/5462/RoomTypes/152623.png"
        },
        "price": {
          "type": "string",
          "description": "R$ 1.666,30"
        }
      }
    },
    "Rooms": {
      "type": "array",
      "items": {
        "$ref": "#/definitions/Room"
      }
    }
  },
  "paths": {
    "/search": {
      "post": {
        "tags": ["Search"],
        "description": "Search available rooms",
        "parameters": [
          {
            "name": "search",
            "in": "body",
            "description": "Check-in and check-out dates",
            "schema": {
              "$ref": "#/definitions/Search"
            }
          }
        ],
        "produces": ["application/json"],
        "responses": {
          "200": {
            "description": "Searched rooms by dates",
            "schema": {
              "type": "array",
              "$ref": "#/definitions/Rooms"
            }
          }
        }
      }
    }
  },
  "schemes": ["http"],
  "consumes": ["application/json"],
  "produces": ["application/json"]
}
